simulation/qsim/FreqDivider.msim.vcd
$comment
	File created using the following command:
		vcd file FreqDivider.msim.vcd -direction
$end
$date
	Mon Dec 11 19:33:11 2023
$end
$version
	ModelSim Version 10.5b
$end
$timescale
	1ps
$end

$scope module FreqDivider_vlg_vec_tst $end
$var reg 1 ! LOAD_D $end
$var reg 1 " LOAD_P $end
$var reg 3 # PAR_LOAD [2:0] $end
$var reg 1 $ clk $end
$var reg 1 % reset $end
$var wire 1 & Qn [2] $end
$var wire 1 ' Qn [1] $end
$var wire 1 ( Qn [0] $end
$var wire 1 ) Qnxt [2] $end
$var wire 1 * Qnxt [1] $end
$var wire 1 + Qnxt [0] $end
$var wire 1 , d_active $end
$var wire 1 - dcounter [2] $end
$var wire 1 . dcounter [1] $end
$var wire 1 / dcounter [0] $end
$var wire 1 0 dutyFrac [2] $end
$var wire 1 1 dutyFrac [1] $end
$var wire 1 2 dutyFrac [0] $end
$var wire 1 3 out $end
$var wire 1 4 p_active $end
$var wire 1 5 pcounter [2] $end
$var wire 1 6 pcounter [1] $end
$var wire 1 7 pcounter [0] $end
$var wire 1 8 period [2] $end
$var wire 1 9 period [1] $end
$var wire 1 : period [0] $end

$scope module i1 $end
$var wire 1 ; gnd $end
$var wire 1 < vcc $end
$var wire 1 = unknown $end
$var tri1 1 > devclrn $end
$var tri1 1 ? devpor $end
$var tri1 1 @ devoe $end
$var wire 1 A ~QUARTUS_CREATED_GND~I_combout $end
$var wire 1 B ~QUARTUS_CREATED_UNVM~~busy $end
$var wire 1 C ~QUARTUS_CREATED_ADC1~~eoc $end
$var wire 1 D p_active~output_o $end
$var wire 1 E d_active~output_o $end
$var wire 1 F period[0]~output_o $end
$var wire 1 G period[1]~output_o $end
$var wire 1 H period[2]~output_o $end
$var wire 1 I dutyFrac[0]~output_o $end
$var wire 1 J dutyFrac[1]~output_o $end
$var wire 1 K dutyFrac[2]~output_o $end
$var wire 1 L out~output_o $end
$var wire 1 M pcounter[0]~output_o $end
$var wire 1 N pcounter[1]~output_o $end
$var wire 1 O pcounter[2]~output_o $end
$var wire 1 P dcounter[0]~output_o $end
$var wire 1 Q dcounter[1]~output_o $end
$var wire 1 R dcounter[2]~output_o $end
$var wire 1 S Qn[0]~output_o $end
$var wire 1 T Qn[1]~output_o $end
$var wire 1 U Qn[2]~output_o $end
$var wire 1 V Qnxt[0]~output_o $end
$var wire 1 W Qnxt[1]~output_o $end
$var wire 1 X Qnxt[2]~output_o $end
$var wire 1 Y clk~input_o $end
$var wire 1 Z clk~inputclkctrl_outclk $end
$var wire 1 [ reset~input_o $end
$var wire 1 \ PAR_LOAD[2]~input_o $end
$var wire 1 ] period~5_combout $end
$var wire 1 ^ LOAD_P~input_o $end
$var wire 1 _ PAR_LOAD[1]~input_o $end
$var wire 1 ` LOAD_D~input_o $end
$var wire 1 a dutyFrac[0]~0_combout $end
$var wire 1 b dutyFrac[2]~reg0_q $end
$var wire 1 c PAR_LOAD[0]~input_o $end
$var wire 1 d period~4_combout $end
$var wire 1 e dutyFrac[1]~reg0_q $end
$var wire 1 f period~0_combout $end
$var wire 1 g dutyFrac[0]~reg0feeder_combout $end
$var wire 1 h dutyFrac[0]~reg0_q $end
$var wire 1 i period[0]~1_combout $end
$var wire 1 j period[0]~2_combout $end
$var wire 1 k period[0]~3_combout $end
$var wire 1 l period[2]~reg0_q $end
$var wire 1 m period[1]~reg0_q $end
$var wire 1 n pcounter~1_combout $end
$var wire 1 o pcounter[1]~reg0_q $end
$var wire 1 p period[0]~reg0_q $end
$var wire 1 q pcounter~4_combout $end
$var wire 1 r pcounter[0]~reg0_q $end
$var wire 1 s pcounter[2]~2_combout $end
$var wire 1 t pcounter[2]~3_combout $end
$var wire 1 u pcounter[2]~reg0_q $end
$var wire 1 v pcounter[2]~0_combout $end
$var wire 1 w Add1~0_combout $end
$var wire 1 x dcounter~2_combout $end
$var wire 1 y dcounter[1]~reg0_q $end
$var wire 1 z Mux3~2_combout $end
$var wire 1 { dcounter~0_combout $end
$var wire 1 | dcounter[2]~reg0_q $end
$var wire 1 } Mux3~0_combout $end
$var wire 1 ~ dcounter~1_combout $end
$var wire 1 !! dcounter[0]~reg0_q $end
$var wire 1 "! d_active~0_combout $end
$var wire 1 #! Mux2~0_combout $end
$var wire 1 $! Qn~2_combout $end
$var wire 1 %! Qn[0]~reg0_q $end
$var wire 1 &! Mux0~0_combout $end
$var wire 1 '! Qn~1_combout $end
$var wire 1 (! Qn[2]~reg0_q $end
$var wire 1 )! Mux1~0_combout $end
$var wire 1 *! Qn~0_combout $end
$var wire 1 +! Qn[1]~reg0_q $end
$var wire 1 ,! Mux3~1_combout $end
$upscope $end
$upscope $end
$enddefinitions $end
#0
$dumpvars
1!
0"
b11 #
0$
0%
0(
0'
0&
0+
0*
0)
0,
0/
0.
0-
02
01
00
03
04
07
06
05
0:
09
08
0;
1<
x=
1>
1?
1@
0A
zB
zC
0D
0E
0F
0G
0H
0I
0J
0K
0L
0M
0N
0O
0P
0Q
0R
0S
0T
0U
0V
0W
0X
0Y
0Z
0[
0\
0]
0^
1_
1`
1a
0b
1c
1d
0e
1f
1g
0h
0i
1j
0k
0l
0m
0n
0o
0p
0q
0r
0s
0t
0u
1v
0w
0x
0y
1z
0{
0|
0}
0~
0!!
1"!
0#!
0$!
0%!
0&!
0'!
0(!
0)!
0*!
0+!
0,!
$end
#10000
1$
1Y
1Z
1h
1e
1J
1I
12
11
1~
1x
#20000
b111 #
b110 #
0!
1"
0$
0Y
1^
0`
1\
0c
0Z
1k
0a
1i
0f
1]
0g
#30000
1$
1Y
1Z
1!!
1y
1m
1l
1H
1G
1Q
1P
1}
0z
1/
1.
19
18
1n
1t
#40000
b100 #
b0 #
0"
0$
0Y
0^
0\
0_
0Z
0k
0j
0]
0d
#50000
1$
1Y
1Z
1u
1o
1N
1O
0v
1s
15
16
1q
0n
1D
0"!
14
1,!
1#!
0~
1V
1L
1E
1,
13
1+
1$!
#60000
0$
0Y
0Z
#70000
1$
1Y
1Z
1%!
0!!
1r
0o
0N
1M
0P
1S
1w
1(
0/
17
06
1)!
0#!
1~
0q
0V
1W
1*
0+
0x
1*!
0$!
#80000
0$
0Y
0Z
#90000
1$
1Y
1Z
1+!
0%!
1!!
0y
0r
0M
0Q
1P
0S
1T
0s
1'
0(
1/
0.
07
1#!
0~
1q
1n
1V
1+
0t
1$!
#100000
0$
0Y
0Z
#110000
1$
1Y
1Z
1%!
0!!
0u
1r
1o
1N
1M
0O
0P
1S
1"!
0}
1z
0w
1(
0/
05
17
16
0)!
1&!
0#!
1~
0q
0V
1X
0W
0E
0,
0*
1)
0+
0,!
0~
0*!
1'!
0$!
0L
03
#120000
0$
0Y
0Z
#130000
1$
1Y
1Z
0+!
1(!
0%!
0r
0M
0S
1U
0T
0'
1&
0(
07
1#!
1q
0n
1V
1+
1$!
#140000
0$
0Y
0Z
#150000
1$
1Y
1Z
1%!
1r
0o
0N
1M
1S
1v
1(
17
06
0&!
0#!
0q
1n
0V
0X
0D
04
0)
0+
1~
1x
1t
0'!
0$!
#160000
0$
0Y
0Z
#170000
1$
1Y
1Z
0(!
0%!
1!!
1y
1u
0r
1o
1N
0M
1O
1Q
1P
0S
0U
1}
0z
0v
1s
0&
0(
1/
1.
15
07
16
1q
0n
1D
0"!
14
1,!
0~
1#!
1V
1L
1E
1,
13
1+
1$!
#180000
0$
0Y
0Z
#190000
1$
1Y
1Z
1%!
0!!
1r
0o
0N
1M
0P
1S
1w
1(
0/
17
06
1)!
0#!
1~
0q
0V
1W
1*
0+
0x
1*!
0$!
#200000
0$
0Y
0Z
#210000
1$
1Y
1Z
1+!
0%!
1!!
0y
0r
0M
0Q
1P
0S
1T
0s
1'
0(
1/
0.
07
1#!
0~
1q
1n
1V
1+
0t
1$!
#220000
0$
0Y
0Z
#230000
1$
1Y
1Z
1%!
0!!
0u
1r
1o
1N
1M
0O
0P
1S
1"!
0}
1z
0w
1(
0/
05
17
16
0)!
1&!
0#!
1~
0q
0V
1X
0W
0E
0,
0*
1)
0+
0,!
0~
0*!
1'!
0$!
0L
03
#240000
0$
0Y
0Z
#250000
1$
1Y
1Z
0+!
1(!
0%!
0r
0M
0S
1U
0T
0'
1&
0(
07
1#!
1q
0n
1V
1+
1$!
#260000
0$
0Y
0Z
#270000
1$
1Y
1Z
1%!
1r
0o
0N
1M
1S
1v
1(
17
06
0&!
0#!
0q
1n
0V
0X
0D
04
0)
0+
1~
1x
1t
0'!
0$!
#280000
0$
0Y
0Z
#290000
1$
1Y
1Z
0(!
0%!
1!!
1y
1u
0r
1o
1N
0M
1O
1Q
1P
0S
0U
1}
0z
0v
1s
0&
0(
1/
1.
15
07
16
1q
0n
1D
0"!
14
1,!
0~
1#!
1V
1L
1E
1,
13
1+
1$!
#300000
0$
0Y
0Z
#310000
1$
1Y
1Z
1%!
0!!
1r
0o
0N
1M
0P
1S
1w
1(
0/
17
06
1)!
0#!
1~
0q
0V
1W
1*
0+
0x
1*!
0$!
#320000
0$
0Y
0Z
#330000
1$
1Y
1Z
1+!
0%!
1!!
0y
0r
0M
0Q
1P
0S
1T
0s
1'
0(
1/
0.
07
1#!
0~
1q
1n
1V
1+
0t
1$!
#340000
0$
0Y
0Z
#350000
1$
1Y
1Z
1%!
0!!
0u
1r
1o
1N
1M
0O
0P
1S
1"!
0}
1z
0w
1(
0/
05
17
16
0)!
1&!
0#!
1~
0q
0V
1X
0W
0E
0,
0*
1)
0+
0,!
0~
0*!
1'!
0$!
0L
03
#360000
0$
0Y
0Z
#370000
1$
1Y
1Z
0+!
1(!
0%!
0r
0M
0S
1U
0T
0'
1&
0(
07
1#!
1q
0n
1V
1+
1$!
#380000
0$
0Y
0Z
#390000
1$
1Y
1Z
1%!
1r
0o
0N
1M
1S
1v
1(
17
06
0&!
0#!
0q
1n
0V
0X
0D
04
0)
0+
1~
1x
1t
0'!
0$!
#400000
0$
0Y
0Z
#410000
1$
1Y
1Z
0(!
0%!
1!!
1y
1u
0r
1o
1N
0M
1O
1Q
1P
0S
0U
1}
0z
0v
1s
0&
0(
1/
1.
15
07
16
1q
0n
1D
0"!
14
1,!
0~
1#!
1V
1L
1E
1,
13
1+
1$!
#420000
0$
0Y
0Z
#430000
1$
1Y
1Z
1%!
0!!
1r
0o
0N
1M
0P
1S
1w
1(
0/
17
06
1)!
0#!
1~
0q
0V
1W
1*
0+
0x
1*!
0$!
#440000
0$
0Y
0Z
#450000
1$
1Y
1Z
1+!
0%!
1!!
0y
0r
0M
0Q
1P
0S
1T
0s
1'
0(
1/
0.
07
1#!
0~
1q
1n
1V
1+
0t
1$!
#460000
0$
0Y
0Z
#470000
1$
1Y
1Z
1%!
0!!
0u
1r
1o
1N
1M
0O
0P
1S
1"!
0}
1z
0w
1(
0/
05
17
16
0)!
1&!
0#!
1~
0q
0V
1X
0W
0E
0,
0*
1)
0+
0,!
0~
0*!
1'!
0$!
0L
03
#480000
0$
0Y
0Z
#490000
1$
1Y
1Z
0+!
1(!
0%!
0r
0M
0S
1U
0T
0'
1&
0(
07
1#!
1q
0n
1V
1+
1$!
#500000
0$
0Y
0Z
#510000
1$
1Y
1Z
1%!
1r
0o
0N
1M
1S
1v
1(
17
06
0&!
0#!
0q
1n
0V
0X
0D
04
0)
0+
1~
1x
1t
0'!
0$!
#520000
0$
0Y
0Z
#530000
1$
1Y
1Z
0(!
0%!
1!!
1y
1u
0r
1o
1N
0M
1O
1Q
1P
0S
0U
1}
0z
0v
1s
0&
0(
1/
1.
15
07
16
1q
0n
1D
0"!
14
1,!
0~
1#!
1V
1L
1E
1,
13
1+
1$!
#540000
0$
0Y
0Z
#550000
1$
1Y
1Z
1%!
0!!
1r
0o
0N
1M
0P
1S
1w
1(
0/
17
06
1)!
0#!
1~
0q
0V
1W
1*
0+
0x
1*!
0$!
#560000
0$
0Y
0Z
#570000
1$
1Y
1Z
1+!
0%!
1!!
0y
0r
0M
0Q
1P
0S
1T
0s
1'
0(
1/
0.
07
1#!
0~
1q
1n
1V
1+
0t
1$!
#580000
0$
0Y
0Z
#590000
1$
1Y
1Z
1%!
0!!
0u
1r
1o
1N
1M
0O
0P
1S
1"!
0}
1z
0w
1(
0/
05
17
16
0)!
1&!
0#!
1~
0q
0V
1X
0W
0E
0,
0*
1)
0+
0,!
0~
0*!
1'!
0$!
0L
03
#600000
0$
0Y
0Z
#610000
1$
1Y
1Z
0+!
1(!
0%!
0r
0M
0S
1U
0T
0'
1&
0(
07
1#!
1q
0n
1V
1+
1$!
#620000
0$
0Y
0Z
#630000
1$
1Y
1Z
1%!
1r
0o
0N
1M
1S
1v
1(
17
06
0&!
0#!
0q
1n
0V
0X
0D
04
0)
0+
1~
1x
1t
0'!
0$!
#640000
0$
0Y
0Z
#650000
1$
1Y
1Z
0(!
0%!
1!!
1y
1u
0r
1o
1N
0M
1O
1Q
1P
0S
0U
1}
0z
0v
1s
0&
0(
1/
1.
15
07
16
1q
0n
1D
0"!
14
1,!
0~
1#!
1V
1L
1E
1,
13
1+
1$!
#660000
0$
0Y
0Z
#670000
1$
1Y
1Z
1%!
0!!
1r
0o
0N
1M
0P
1S
1w
1(
0/
17
06
1)!
0#!
1~
0q
0V
1W
1*
0+
0x
1*!
0$!
#680000
0$
0Y
0Z
#690000
1$
1Y
1Z
1+!
0%!
1!!
0y
0r
0M
0Q
1P
0S
1T
0s
1'
0(
1/
0.
07
1#!
0~
1q
1n
1V
1+
0t
1$!
#700000
0$
0Y
0Z
#710000
1$
1Y
1Z
1%!
0!!
0u
1r
1o
1N
1M
0O
0P
1S
1"!
0}
1z
0w
1(
0/
05
17
16
0)!
1&!
0#!
1~
0q
0V
1X
0W
0E
0,
0*
1)
0+
0,!
0~
0*!
1'!
0$!
0L
03
#720000
0$
0Y
0Z
#730000
1$
1Y
1Z
0+!
1(!
0%!
0r
0M
0S
1U
0T
0'
1&
0(
07
1#!
1q
0n
1V
1+
1$!
#740000
0$
0Y
0Z
#750000
1$
1Y
1Z
1%!
1r
0o
0N
1M
1S
1v
1(
17
06
0&!
0#!
0q
1n
0V
0X
0D
04
0)
0+
1~
1x
1t
0'!
0$!
#760000
0$
0Y
0Z
#770000
1$
1Y
1Z
0(!
0%!
1!!
1y
1u
0r
1o
1N
0M
1O
1Q
1P
0S
0U
1}
0z
0v
1s
0&
0(
1/
1.
15
07
16
1q
0n
1D
0"!
14
1,!
0~
1#!
1V
1L
1E
1,
13
1+
1$!
#780000
0$
0Y
0Z
#790000
1$
1Y
1Z
1%!
0!!
1r
0o
0N
1M
0P
1S
1w
1(
0/
17
06
1)!
0#!
1~
0q
0V
1W
1*
0+
0x
1*!
0$!
#800000
0$
0Y
0Z
#810000
1$
1Y
1Z
1+!
0%!
1!!
0y
0r
0M
0Q
1P
0S
1T
0s
1'
0(
1/
0.
07
1#!
0~
1q
1n
1V
1+
0t
1$!
#820000
0$
0Y
0Z
#830000
1$
1Y
1Z
1%!
0!!
0u
1r
1o
1N
1M
0O
0P
1S
1"!
0}
1z
0w
1(
0/
05
17
16
0)!
1&!
0#!
1~
0q
0V
1X
0W
0E
0,
0*
1)
0+
0,!
0~
0*!
1'!
0$!
0L
03
#840000
0$
0Y
0Z
#850000
1$
1Y
1Z
0+!
1(!
0%!
0r
0M
0S
1U
0T
0'
1&
0(
07
1#!
1q
0n
1V
1+
1$!
#860000
0$
0Y
0Z
#870000
1$
1Y
1Z
1%!
1r
0o
0N
1M
1S
1v
1(
17
06
0&!
0#!
0q
1n
0V
0X
0D
04
0)
0+
1~
1x
1t
0'!
0$!
#880000
0$
0Y
0Z
#890000
1$
1Y
1Z
0(!
0%!
1!!
1y
1u
0r
1o
1N
0M
1O
1Q
1P
0S
0U
1}
0z
0v
1s
0&
0(
1/
1.
15
07
16
1q
0n
1D
0"!
14
1,!
0~
1#!
1V
1L
1E
1,
13
1+
1$!
#900000
0$
0Y
0Z
#910000
1$
1Y
1Z
1%!
0!!
1r
0o
0N
1M
0P
1S
1w
1(
0/
17
06
1)!
0#!
1~
0q
0V
1W
1*
0+
0x
1*!
0$!
#920000
0$
0Y
0Z
#930000
1$
1Y
1Z
1+!
0%!
1!!
0y
0r
0M
0Q
1P
0S
1T
0s
1'
0(
1/
0.
07
1#!
0~
1q
1n
1V
1+
0t
1$!
#940000
0$
0Y
0Z
#950000
1$
1Y
1Z
1%!
0!!
0u
1r
1o
1N
1M
0O
0P
1S
1"!
0}
1z
0w
1(
0/
05
17
16
0)!
1&!
0#!
1~
0q
0V
1X
0W
0E
0,
0*
1)
0+
0,!
0~
0*!
1'!
0$!
0L
03
#960000
0$
0Y
0Z
#970000
1$
1Y
1Z
0+!
1(!
0%!
0r
0M
0S
1U
0T
0'
1&
0(
07
1#!
1q
0n
1V
1+
1$!
#980000
0$
0Y
0Z
#990000
1$
1Y
1Z
1%!
1r
0o
0N
1M
1S
1v
1(
17
06
0&!
0#!
0q
1n
0V
0X
0D
04
0)
0+
1~
1x
1t
0'!
0$!
